{
    "client":{
        "name":"Client Name",
        "type":"master",
        "group":1
    },
    "files":{
        "client_secret":"client_secret.json",
        "csv":"link.csv",
        "credentials":"credentials.json"

    },
    "api":{
        "name":"Project Name",
        "email":"YourEmail@email.com",
        "scope":["https://picasaweb.google.com/data/","https://www.googleapis.com/auth/drive"]
    },
    "program":{
        "thread_num":4
    }
}